PRP$	0.00806339496733
VBG	0.0129755781083
VBD	0.0312340701608
``	0.00732193336114
VBN	0.0189536123083
POS	0.00848046712081
''	0.00722925066036
VBP	0.0116316789471
WDT	0.00310487047593
JJ	0.057370591779
WP	0.00264145697206
VBZ	0.0212706798276
DT	0.0766949348904
</s>	0.0371194216599
RP	0.0028268223736
$	0.00500486584179
NN	0.117475323231
<s>	0.0371194216599
FW	0.000139024051161
,	0.0429584318087
.	0.0371657630103
TO	0.0188145882571
PRP	0.017007275592
RB	0.0261828629686
-LRB-	0.000695120255804
:	0.00514388989295
NNS	0.0555169377636
NNP	0.0927753834747
VB	0.0210853144261
WRB	0.00166828861393
CC	0.0202975114695
PDT	0.000185365401548
RBS	0.000324389452709
RBR	0.00189999536586
CD	0.0253023773113
-NONE-	0.0598266833496
EX	0.000741461606191
IN	0.0923583113212
WP$	0.000185365401548
MD	0.00658047175495
NNPS	0.0010658510589
-RRB-	0.000695120255804
JJS	0.00194633671625
JJR	0.00278048102322
UH	9.26827007739e-05
