VB	$	0.011013215859
VBG	VBN	0.0215053763441
VBN	VBN	0.0269607843137
CD	NNS	0.170642201835
CD	NNP	0.0128440366972
NNS	PRP	0.000835421888053
,	WDT	0.0205183585313
,	-NONE-	0.0313174946004
WDT	NNS	0.0151515151515
VBG	-NONE-	0.0752688172043
NNP	NNS	0.0209895052474
NNP	NNP	0.406296851574
VBG	:	0.00358422939068
WRB	RB	0.0285714285714
FW	VBZ	0.5
DT	NNPS	0.00241837968561
DT	NN	0.440145102781
WP	RB	0.0178571428571
NN	''	0.00552486187845
WRB	RP	0.0285714285714
NNS	RBR	0.00167084377611
VBG	.	0.0215053763441
VBG	,	0.0179211469534
VBG	$	0.00716845878136
WRB	DT	0.2
VBD	WRB	0.00297176820208
POS	NNP	0.159340659341
POS	NNS	0.137362637363
VBG	CC	0.0179211469534
VBZ	,	0.00655021834061
VBN	VBG	0.0122549019608
VBG	CD	0.0179211469534
CC	JJ	0.107551487414
PRP	NN	0.0109289617486
PRP	IN	0.0327868852459
,	EX	0.00215982721382
NNS	VBG	0.00751879699248
VBG	JJ	0.0681003584229
<s>	PRP$	0.00875
CC	WRB	0.00228832951945
NNS	JJR	0.00250626566416
JJ	NN	0.45109135004
VB	JJR	0.00660792951542
PRP$	NNS	0.196531791908
PRP$	NNP	0.0404624277457
NNS	MD	0.0208855472013
-NONE-	WRB	0.0015503875969
-NONE-	-RRB-	0.00387596899225
<s>	RBR	0.00125
RB	-NONE-	0.0390070921986
VBG	``	0.00358422939068
NNS	DT	0.00835421888053
VB	''	0.00220264317181
-NONE-	,	0.0434108527132
NN	DT	0.00394632991318
-NONE-	.	0.0992248062016
-LRB-	VBN	0.0714285714286
<s>	PRP	0.07875
-NONE-	$	0.0015503875969
-LRB-	VBG	0.0714285714286
<s>	WP	0.005
-RRB-	</s>	0.142857142857
NN	JJ	0.00670876085241
VBD	``	0.00445765230312
NNP	VBP	0.0039980009995
DT	RB	0.00906892382104
DT	WP	0.00120918984281
CD	NN	0.194495412844
VBP	RB	0.112
JJ	JJR	0.000808407437348
:	NN	0.0272727272727
:	JJ	0.0909090909091
VBP	RP	0.016
JJR	CC	0.0338983050847
NN	CC	0.0386740331492
NN	RBR	0.000394632991318
JJR	CD	0.0169491525424
VBN	JJR	0.00245098039216
RBR	-NONE-	0.025
RB	IN	0.129432624113
CC	CD	0.0183066361556
,	JJS	0.00107991360691
JJ	VBN	0.00404203718674
TO	RBR	0.00493827160494
NNS	RB	0.0275689223058
VBZ	RB	0.120087336245
JJ	VBG	0.00242522231205
VBP	DT	0.104
JJ	VBZ	0.0016168148747
VBZ	NNP	0.0327510917031
VBZ	NNS	0.0131004366812
VBG	DT	0.15770609319
VBN	TO	0.0122549019608
VBP	,	0.008
JJ	VBP	0.000808407437348
CC	$	0.0137299771167
VBZ	RP	0.0109170305677
''	CC	0.0258064516129
VB	PRP$	0.0484581497797
JJ	NNPS	0.0016168148747
PRP	JJ	0.0109289617486
JJS	,	0.0243902439024
-LRB-	IN	0.214285714286
VBZ	-NONE-	0.21615720524
,	NNP	0.11879049676
,	NNS	0.024838012959
VB	IN	0.0881057268722
WP	NN	0.0178571428571
WRB	NN	0.142857142857
RBS	JJ	0.833333333333
VBD	RB	0.072808320951
NNP	-LRB-	0.000499750124938
NNP	VBD	0.0664667666167
NN	RP	0.000394632991318
IN	``	0.00953815261044
VBD	RP	0.0222882615156
POS	JJS	0.0164835164835
CC	NN	0.132723112128
VBZ	.	0.00436681222707
RP	NN	0.0166666666667
DT	PRP	0.00120918984281
IN	RB	0.011546184739
VBZ	$	0.00218340611354
VBG	-RRB-	0.00358422939068
NNP	VBN	0.000999500249875
VBZ	:	0.00873362445415
NNP	,	0.129435282359
VBZ	IN	0.0720524017467
NNP	:	0.00699650174913
TO	IN	0.00493827160494
DT	TO	0.000604594921403
VBP	VBG	0.092
RP	''	0.0166666666667
NNS	IN	0.267335004177
IN	TO	0.00100401606426
JJ	JJ	0.0703314470493
NNP	.	0.0564717641179
VBZ	``	0.0109170305677
VBP	VBN	0.188
CC	WDT	0.00228832951945
NNP	$	0.000499750124938
RB	JJR	0.00886524822695
CD	DT	0.00366972477064
RB	NN	0.0212765957447
<s>	JJS	0.00125
NNP	''	0.00649675162419
PRP$	$	0.0115606936416
JJR	DT	0.0338983050847
RBR	.	0.025
CC	EX	0.00686498855835
NN	NNS	0.0824782951855
NN	NNP	0.008681925809
PRP	CC	0.00819672131148
VBZ	RBR	0.00436681222707
JJ	PRP	0.000808407437348
.	NNP	0.00249687890137
NN	VB	0.000394632991318
CD	JJ	0.0440366972477
JJ	NNS	0.235246564268
JJ	NNP	0.0299110751819
WDT	PRP	0.0454545454545
WP$	NNS	0.333333333333
:	</s>	0.0545454545455
RP	NNS	0.0333333333333
VBG	TO	0.0430107526882
NN	``	0.00276243093923
NN	-RRB-	0.000789265982636
<s>	JJ	0.035
NNS	VBD	0.0802005012531
,	''	0.0637149028078
NNS	``	0.00250626566416
PDT	DT	1.0
-NONE-	TO	0.175968992248
RB	DT	0.0691489361702
WP	PRP	0.0535714285714
NNS	VBN	0.0225563909774
VBZ	VB	0.00218340611354
CC	WP	0.00228832951945
NNS	VBP	0.0810359231412
JJR	.	0.0169491525424
VB	TO	0.0176211453744
JJR	,	0.0338983050847
VBD	JJR	0.00445765230312
RP	CD	0.0333333333333
RB	,	0.0886524822695
NNS	VBZ	0.00835421888053
-LRB-	$	0.142857142857
NN	VBZ	0.043409629045
NN	-LRB-	0.000394632991318
DT	FW	0.000604594921403
NN	VBP	0.00473559589582
VBG	PRP$	0.0358422939068
TO	-NONE-	0.00987654320988
``	CC	0.00636942675159
WRB	JJ	0.114285714286
NN	VBN	0.00828729281768
NNP	POS	0.0544727636182
NNS	PRP$	0.000835421888053
NN	PRP	0.00276243093923
NN	VBG	0.00552486187845
NN	VBD	0.0501183898974
PRP$	JJS	0.0231213872832
JJ	CC	0.0202101859337
JJ	CD	0.0218270008084
-NONE-	``	0.0015503875969
''	-NONE-	0.00645161290323
``	NNS	0.031847133758
``	NNP	0.133757961783
CC	PRP$	0.0160183066362
JJ	DT	0.00323362974939
NNS	:	0.0192147034252
RB	WP	0.00177304964539
JJ	:	0.00565885206144
``	JJ	0.101910828025
IN	NN	0.10843373494
JJ	$	0.00242522231205
RP	JJ	0.05
JJ	,	0.0363783346807
NNS	,	0.118629908104
POS	-RRB-	0.00549450549451
RB	RBR	0.00531914893617
-NONE-	MD	0.00542635658915
PRP	NNP	0.00819672131148
,	CC	0.0637149028078
,	CD	0.0313174946004
<s>	NN	0.02375
JJS	NN	0.19512195122
PRP	DT	0.00546448087432
DT	JJ	0.24123337364
CC	VBN	0.0228832951945
RBR	WRB	0.025
CD	IN	0.0532110091743
CC	TO	0.00228832951945
,	DT	0.170626349892
NNS	VB	0.00167084377611
<s>	EX	0.00375
RB	JJ	0.0904255319149
IN	JJS	0.00502008032129
IN	JJR	0.00401606425703
MD	-NONE-	0.0141843971631
VBZ	WRB	0.00218340611354
PRP$	-LRB-	0.00578034682081
IN	NNPS	0.00200803212851
DT	RBS	0.00241837968561
VBG	IN	0.10752688172
WDT	DT	0.030303030303
JJ	WRB	0.0016168148747
NN	RB	0.0157853196527
-NONE-	RBR	0.0031007751938
-NONE-	RBS	0.00077519379845
CC	PRP	0.0389016018307
VBP	WRB	0.004
``	VBN	0.00636942675159
VBZ	TO	0.0109170305677
:	RBR	0.00909090909091
VBZ	DT	0.124454148472
-NONE-	PRP	0.0542635658915
,	WP$	0.00215982721382
CC	VBP	0.0228832951945
IN	JJ	0.0883534136546
WDT	-NONE-	0.878787878788
CC	VBZ	0.0183066361556
CC	VBD	0.0617848970252
CD	RB	0.00183486238532
CC	VBG	0.0297482837529
NNP	PRP	0.000999500249875
-RRB-	IN	0.142857142857
JJR	NN	0.254237288136
NNS	POS	0.0133667502089
IN	WDT	0.00251004016064
WP$	NN	0.333333333333
NN	WRB	0.00157853196527
WDT	VBZ	0.0151515151515
RBR	VB	0.025
PRP	RP	0.00546448087432
``	IN	0.0445859872611
NNS	WRB	0.00250626566416
PRP	RB	0.0546448087432
VBD	TO	0.0222882615156
<s>	NNPS	0.00125
WRB	IN	0.0571428571429
:	MD	0.0181818181818
DT	-NONE-	0.00181378476421
VBZ	JJ	0.0414847161572
``	PRP	0.152866242038
WDT	VBD	0.0151515151515
JJR	NNS	0.152542372881
NN	-NONE-	0.043409629045
UH	IN	1.0
IN	CD	0.0637550200803
PRP	JJR	0.00273224043716
RB	CC	0.0106382978723
RB	CD	0.031914893617
''	NNP	0.0774193548387
''	NNS	0.0129032258065
JJR	IN	0.322033898305
IN	NNS	0.0642570281124
NNS	''	0.00751879699248
IN	NNP	0.170682730924
:	VBN	0.00909090909091
NNS	CC	0.0609857978279
<s>	NNP	0.175
<s>	NNS	0.04875
-NONE-	IN	0.155813953488
VBD	RBR	0.00445765230312
<s>	RB	0.05125
RB	``	0.00177304964539
WRB	NNP	0.0571428571429
NNS	WDT	0.0142021720969
DT	VBZ	0.00483675937122
VB	VBG	0.00881057268722
VB	VBD	0.00220264317181
VBP	WP	0.004
VB	VBN	0.0837004405286
WRB	PRP	0.257142857143
RP	RB	0.0333333333333
<s>	``	0.09
:	WDT	0.00909090909091
POS	CD	0.010989010989
<s>	IN	0.14
NNPS	``	0.0454545454545
:	CD	0.0454545454545
:	CC	0.0454545454545
DT	''	0.000604594921403
,	``	0.0129589632829
PRP$	NN	0.445086705202
RP	DT	0.3
:	VBP	0.0363636363636
DT	NNS	0.0792019347037
DT	NNP	0.120314389359
WRB	NNS	0.0857142857143
JJ	RB	0.00323362974939
CD	POS	0.00183486238532
CC	JJS	0.00686498855835
RP	.	0.0333333333333
''	</s>	0.303225806452
RP	,	0.0833333333333
IN	WRB	0.00150602409639
RB	VB	0.0691489361702
-NONE-	:	0.00542635658915
.	''	0.0649188514357
EX	MD	0.133333333333
TO	RB	0.00740740740741
VBD	UH	0.00148588410104
DT	CD	0.0205562273277
VB	JJ	0.0814977973568
WP	IN	0.0178571428571
NNP	CC	0.0379810094953
VBP	RBR	0.016
NNP	CD	0.0129935032484
DT	JJR	0.00725513905683
DT	JJS	0.0108827085852
JJS	VBP	0.0243902439024
VB	,	0.00881057268722
VB	.	0.0154185022026
<s>	VBG	0.00375
NNPS	IN	0.136363636364
JJR	JJ	0.0508474576271
``	RB	0.0636942675159
VBN	CC	0.00245098039216
NNS	-NONE-	0.0367585630744
VBN	CD	0.00490196078431
VBD	-NONE-	0.260029717682
VB	:	0.00220264317181
CC	NNP	0.1647597254
CC	NNS	0.0640732265446
VB	CC	0.00440528634361
RP	``	0.0166666666667
NNP	VBZ	0.0489755122439
''	IN	0.103225806452
WP$	JJ	0.333333333333
-NONE-	PRP$	0.0062015503876
NNP	VBG	0.00149925037481
IN	IN	0.0185742971888
RB	:	0.00531914893617
RB	NNS	0.00886524822695
VBZ	JJR	0.00436681222707
RBS	IN	0.166666666667
VBZ	NN	0.028384279476
NN	WDT	0.00631412786109
<s>	JJR	0.00875
RBR	VBN	0.05
VBP	NNS	0.028
VBP	NNP	0.028
DT	VBN	0.00665054413543
NNP	MD	0.0104947526237
,	TO	0.00323974082073
VBD	VBN	0.0995542347697
-RRB-	,	0.285714285714
DT	VBG	0.0102781136638
DT	VBD	0.00120918984281
VBD	VBG	0.0178306092125
VBD	PRP	0.0252600297177
,	IN	0.0680345572354
RB	$	0.00354609929078
``	-NONE-	0.0382165605096
WP	VBZ	0.0178571428571
NN	JJR	0.00197316495659
NNP	VB	0.000999500249875
``	NN	0.0955414012739
NN	JJS	0.000394632991318
NNS	TO	0.0217209690894
VB	NN	0.0638766519824
VBZ	WP	0.00218340611354
NN	WP	0.00473559589582
CD	JJR	0.00183486238532
JJR	NNP	0.0169491525424
IN	PRP$	0.035140562249
DT	,	0.000604594921403
-LRB-	NNP	0.357142857143
DT	.	0.00181378476421
RP	CC	0.0166666666667
DT	$	0.00967351874244
.	-RRB-	0.00249687890137
RP	IN	0.166666666667
.	</s>	0.928838951311
''	WDT	0.0258064516129
VB	``	0.00440528634361
PRP	PRP	0.00273224043716
RB	PRP	0.00354609929078
PRP	.	0.0245901639344
PRP	,	0.0245901639344
RP	PRP$	0.0833333333333
RB	.	0.0460992907801
RB	NNP	0.00177304964539
VBN	-NONE-	0.617647058824
VBP	JJR	0.004
-RRB-	.	0.214285714286
VBG	JJR	0.00716845878136
,	RBS	0.00107991360691
,	RBR	0.00323974082073
-NONE-	VBG	0.0728682170543
-NONE-	VBD	0.0356589147287
VBN	PRP$	0.0147058823529
-NONE-	VBN	0.0131782945736
-NONE-	-NONE-	0.0798449612403
:	IN	0.136363636364
-NONE-	VBP	0.0255813953488
PRP$	JJ	0.231213872832
-NONE-	VBZ	0.0325581395349
VBP	IN	0.092
RB	VBN	0.0673758865248
PRP	WP	0.00546448087432
VBD	NNP	0.0267459138187
RB	VBG	0.0283687943262
RB	VBD	0.0656028368794
VBD	IN	0.115898959881
TO	VB	0.604938271605
NNS	-RRB-	0.000835421888053
TO	NNP	0.0592592592593
TO	NNS	0.0271604938272
-NONE-	''	0.00077519379845
RB	VBP	0.0354609929078
,	RB	0.0593952483801
``	DT	0.178343949045
``	</s>	0.00636942675159
CD	CD	0.152293577982
CD	CC	0.0201834862385
DT	-LRB-	0.000604594921403
NNP	RB	0.007996001999
CD	WDT	0.00183486238532
JJS	DT	0.0243902439024
NNPS	POS	0.0454545454545
<s>	CD	0.00375
RP	-NONE-	0.1
<s>	CC	0.055
TO	JJ	0.0271604938272
NNPS	CC	0.181818181818
-LRB-	DT	0.142857142857
<s>	-NONE-	0.01875
PRP	VB	0.00819672131148
IN	PDT	0.00100401606426
<s>	-LRB-	0.0025
-NONE-	RP	0.00387596899225
-NONE-	NN	0.0178294573643
-NONE-	EX	0.00232558139535
``	VBP	0.0191082802548
NNP	IN	0.0499750124938
DT	IN	0.0102781136638
VBD	NNS	0.0222882615156
NN	TO	0.0177584846093
MD	RB	0.106382978723
JJ	''	0.00242522231205
VBP	TO	0.008
<s>	DT	0.235
-RRB-	VBD	0.0714285714286
PRP	RBR	0.00273224043716
NNS	-LRB-	0.00334168755221
TO	CD	0.0345679012346
NN	MD	0.0146014206788
VBP	PRP	0.02
VB	RP	0.0418502202643
,	MD	0.00863930885529
VBD	VB	0.00594353640416
CD	TO	0.00550458715596
RB	VBZ	0.0496453900709
DT	``	0.00665054413543
VB	RB	0.0264317180617
:	WP	0.0181818181818
VBD	NN	0.0416047548291
-NONE-	RB	0.0186046511628
-NONE-	NNP	0.046511627907
VBN	RB	0.0220588235294
RBR	JJ	0.25
,	WP	0.0107991360691
IN	-NONE-	0.0301204819277
:	RB	0.0272727272727
VBN	RP	0.00980392156863
RB	WRB	0.00177304964539
<s>	TO	0.00125
NN	CD	0.00276243093923
:	``	0.0363636363636
JJS	RB	0.0731707317073
POS	``	0.0164835164835
CC	RB	0.0640732265446
$	JJ	0.00934579439252
``	PRP$	0.0127388535032
,	$	0.00431965442765
NN	,	0.112075769534
NN	.	0.119179163378
-RRB-	NN	0.142857142857
WRB	VBZ	0.0285714285714
NN	:	0.016179952644
VBN	DT	0.0563725490196
VBD	$	0.00594353640416
:	PRP	0.0272727272727
:	VBD	0.0636363636364
VB	RBR	0.00881057268722
PRP$	CD	0.0346820809249
NN	POS	0.0217048145225
VB	CD	0.0176211453744
$	CD	0.990654205607
JJR	TO	0.0508474576271
JJR	$	0.0169491525424
:	VBZ	0.00909090909091
NNP	-NONE-	0.0039980009995
JJS	JJ	0.121951219512
-NONE-	CD	0.00077519379845
JJ	-NONE-	0.016168148747
TO	$	0.037037037037
NN	IN	0.23954222573
-NONE-	CC	0.00852713178295
NNP	NNPS	0.00549725137431
IN	RBR	0.00100401606426
,	PRP$	0.00323974082073
<s>	WRB	0.005
RBR	DT	0.025
NNP	NN	0.0429785107446
VBD	CC	0.00297176820208
VBN	:	0.00490196078431
RB	RB	0.0815602836879
TO	NN	0.0296296296296
''	VBZ	0.2
VBN	RBR	0.00245098039216
''	VBP	0.00645161290323
-NONE-	DT	0.0480620155039
CD	-NONE-	0.2
VBN	.	0.00245098039216
VBN	,	0.00490196078431
''	VBD	0.0516129032258
''	VBG	0.00645161290323
,	JJ	0.0518358531317
VB	-NONE-	0.0903083700441
VBP	PRP$	0.004
VBN	$	0.00245098039216
IN	PRP	0.0286144578313
JJ	TO	0.00727566693614
NN	PRP$	0.000789265982636
POS	.	0.010989010989
NNS	WP	0.0108604845447
TO	VBN	0.00246913580247
-NONE-	JJ	0.0170542635659
NNP	DT	0.00249875062469
DT	MD	0.00120918984281
MD	VB	0.879432624113
JJS	IN	0.219512195122
VBG	RB	0.0609318996416
WP	-NONE-	0.785714285714
EX	VBZ	0.6
EX	VBP	0.133333333333
VBP	-NONE-	0.148
VBG	RP	0.0143369175627
EX	VBD	0.133333333333
''	PRP	0.0516129032258
VB	DT	0.240088105727
CC	-NONE-	0.0114416475973
PRP$	VBN	0.00578034682081
,	VBD	0.0658747300216
,	VBG	0.0194384449244
VBG	''	0.00358422939068
VBN	IN	0.0637254901961
,	VBN	0.0215982721382
,	VBP	0.00647948164147
CC	IN	0.0343249427918
DT	DT	0.00302297460701
,	VBZ	0.0291576673866
VBN	``	0.00735294117647
CD	VBG	0.00550458715596
VBP	JJ	0.072
CD	VBD	0.00917431192661
VB	VB	0.00220264317181
VBD	JJ	0.0609212481426
-NONE-	JJR	0.00077519379845
CD	VBN	0.00183486238532
JJS	NNS	0.19512195122
``	EX	0.0254777070064
NNPS	VBP	0.136363636364
VBN	NN	0.046568627451
.	``	0.00124843945069
CD	VBZ	0.00366972477064
PRP	TO	0.0300546448087
FW	NN	0.5
NNS	NN	0.0133667502089
CC	:	0.00228832951945
:	-NONE-	0.0181818181818
CC	,	0.0137299771167
NNS	WP$	0.000835421888053
NNP	WP	0.000999500249875
POS	NN	0.428571428571
VB	NNS	0.0374449339207
VB	NNP	0.0440528634361
<s>	WDT	0.00125
``	VB	0.00636942675159
RBR	RB	0.2
POS	JJ	0.181318681319
,	PRP	0.0356371490281
NNS	.	0.114452798663
VBG	PRP	0.0215053763441
CD	:	0.00733944954128
POS	WP	0.00549450549451
''	NN	0.0451612903226
JJ	.	0.0202101859337
''	WRB	0.00645161290323
RBR	,	0.025
CD	,	0.0715596330275
CD	.	0.0366972477064
NNPS	:	0.0909090909091
PRP$	``	0.00578034682081
,	NN	0.0561555075594
VBD	DT	0.124814264487
NNPS	,	0.0454545454545
NNPS	.	0.136363636364
VBZ	CD	0.0174672489083
:	DT	0.127272727273
CC	JJR	0.0045766590389
VBZ	CC	0.00218340611354
DT	RBR	0.00302297460701
``	VBG	0.0127388535032
``	VBD	0.00636942675159
NNS	JJ	0.0217209690894
JJ	RBR	0.000808407437348
:	WRB	0.00909090909091
JJ	IN	0.0573969280517
RP	TO	0.0166666666667
NNP	JJR	0.000499750124938
NNP	JJ	0.00849575212394
WP	NNS	0.0178571428571
WP	NNP	0.0178571428571
NN	NN	0.114838200474
''	-LRB-	0.0258064516129
NN	FW	0.000394632991318
POS	VBZ	0.00549450549451
``	VBZ	0.00636942675159
PRP	VBP	0.133879781421
CC	VB	0.0320366132723
``	WRB	0.0127388535032
TO	PRP$	0.0197530864198
<s>	VBZ	0.00125
PRP	VBZ	0.20218579235
VBZ	PDT	0.00218340611354
-NONE-	VB	0.0108527131783
PRP	-NONE-	0.0355191256831
PRP	VBD	0.31693989071
PRP	VBG	0.00819672131148
VBD	CD	0.0267459138187
WP	DT	0.0357142857143
VBP	CD	0.012
VBP	CC	0.004
PRP	VBN	0.00273224043716
PRP	MD	0.0628415300546
POS	VBN	0.00549450549451
RB	TO	0.0159574468085
POS	VBG	0.0164835164835
:	NNS	0.0454545454545
,	VB	0.00215982721382
:	NNP	0.118181818182
TO	DT	0.123456790123
VBG	NN	0.154121863799
VBZ	VBD	0.00218340611354
VBZ	VBG	0.056768558952
VBZ	PRP	0.0218340611354
:	.	0.0181818181818
VBZ	VBN	0.159388646288
NNPS	NNP	0.181818181818
''	DT	0.0387096774194
,	WRB	0.00647948164147
VBP	``	0.008
NNP	-RRB-	0.000999500249875
-NONE-	NNS	0.0062015503876
IN	DT	0.324799196787
VBZ	VBZ	0.00218340611354
VBZ	PRP$	0.0174672489083
IN	VBN	0.00251004016064
VBD	PRP$	0.0193164933135
CC	MD	0.0045766590389
``	MD	0.0127388535032
IN	VBG	0.00301204819277
IN	VBD	0.000502008032129
VBD	,	0.00297176820208
VBD	.	0.00594353640416
VBN	JJ	0.0367647058824
VBP	NN	0.028
IN	,	0.00100401606426
IN	.	0.00100401606426
IN	$	0.0200803212851
TO	PRP	0.00740740740741
JJS	CC	0.0243902439024
DT	CC	0.000604594921403
RBR	IN	0.35
JJS	CD	0.0487804878049
VB	PRP	0.0418502202643
JJ	``	0.00242522231205
NNS	NNS	0.00584795321637
NNP	WDT	0.000499750124938
VBG	NNP	0.0394265232975
VBG	NNS	0.0967741935484
RB	MD	0.0177304964539
CC	DT	0.0983981693364
JJS	.	0.0487804878049
VBN	NNP	0.0122549019608
VBN	NNS	0.0343137254902
``	WP	0.0254777070064
NNP	TO	0.007996001999
WP	,	0.0178571428571
''	RB	0.0129032258065
